<?xml version="1.0" encoding="utf-8"?>
<!-- Generator: Adobe Illustrator 17.0.0, SVG Export Plug-In . SVG Version: 6.00 Build 0)  -->
<!DOCTYPE svg PUBLIC "-//W3C//DTD SVG 1.1//EN" "http://www.w3.org/Graphics/SVG/1.1/DTD/svg11.dtd">
<svg version="1.1" id="Layer_1" xmlns="http://www.w3.org/2000/svg" xmlns:xlink="http://www.w3.org/1999/xlink" x="0px" y="0px"
	 width="70.866px" height="70.866px" viewBox="0 0 70.866 70.866" style="enable-background:new 0 0 70.866 70.866;"
	 xml:space="preserve">
<path d="M49.417,30.87h-16.66c-0.359,0-0.648-0.293-0.648-0.649c0-0.359,0.289-0.648,0.648-0.648h16.66
	c0.356,0,0.649,0.289,0.649,0.648C50.066,30.577,49.777,30.87,49.417,30.87L49.417,30.87z M49.417,30.87"/>
<path d="M49.417,45.045h-16.66c-0.359,0-0.648-0.289-0.648-0.644c0-0.359,0.289-0.649,0.648-0.649h16.66
	c0.356,0,0.649,0.29,0.649,0.649C50.066,44.756,49.777,45.045,49.417,45.045L49.417,45.045z M49.417,45.045"/>
<path d="M49.87,12.975h-0.64v-2.902c0-0.442-0.356-0.801-0.797-0.801c-0.445,0-0.801,0.359-0.801,0.801v2.902h-2.801v-2.902
	c0-0.442-0.355-0.801-0.8-0.801c-0.442,0-0.801,0.359-0.801,0.801v2.902h-2.797v-2.902c0-0.442-0.359-0.801-0.801-0.801
	c-0.441,0-0.801,0.359-0.801,0.801v2.902h-2.8v-2.902c0-0.442-0.356-0.801-0.801-0.801c-0.442,0-0.797,0.359-0.797,0.801v2.902
	h-2.801v-2.902c0-0.442-0.359-0.801-0.801-0.801c-0.441,0-0.8,0.359-0.8,0.801v2.902H27.23v-2.902c0-0.442-0.356-0.801-0.797-0.801
	c-0.445,0-0.801,0.359-0.801,0.801v2.902h-2.801v-2.902c0-0.442-0.355-0.801-0.8-0.801c-0.442,0-0.801,0.359-0.801,0.801v2.902
	h-0.641c-3.969,0-7.199,3.231-7.199,7.199v33.868c0,3.968,3.23,7.199,7.199,7.199H49.87c3.973,0,7.204-3.231,7.204-7.199V20.174
	C57.074,16.206,53.843,12.975,49.87,12.975L49.87,12.975z M55.472,54.042c0,3.085-2.512,5.597-5.602,5.597H20.589
	c-3.086,0-5.597-2.512-5.597-5.597V20.174c0-3.089,2.511-5.601,5.597-5.601h0.641v2.324c0,0.441,0.359,0.801,0.801,0.801
	c0.445,0,0.8-0.36,0.8-0.801v-2.324h2.801v2.324c0,0.441,0.356,0.801,0.801,0.801c0.441,0,0.797-0.36,0.797-0.801v-2.324h2.801
	v2.324c0,0.441,0.359,0.801,0.8,0.801c0.442,0,0.801-0.36,0.801-0.801v-2.324h2.801v2.324c0,0.441,0.355,0.801,0.797,0.801
	c0.445,0,0.801-0.36,0.801-0.801v-2.324h2.8v2.324c0,0.441,0.36,0.801,0.801,0.801c0.442,0,0.801-0.36,0.801-0.801v-2.324h2.797
	v2.324c0,0.441,0.359,0.801,0.801,0.801c0.445,0,0.8-0.36,0.8-0.801v-2.324h2.801v2.324c0,0.441,0.356,0.801,0.801,0.801
	c0.441,0,0.797-0.36,0.797-0.801v-2.324h0.64c3.09,0,5.602,2.512,5.602,5.601V54.042z M28.265,27.159l-3.93,6.289
	c-0.117,0.187-0.304,0.32-0.523,0.363c-0.051,0.008-0.102,0.016-0.156,0.016c-0.164,0-0.325-0.051-0.461-0.149l-3.262-2.312
	c-0.363-0.254-0.445-0.754-0.191-1.114c0.253-0.363,0.753-0.449,1.117-0.191l2.57,1.82l3.484-5.57
	c0.231-0.375,0.723-0.492,1.102-0.258C28.386,26.288,28.499,26.784,28.265,27.159L28.265,27.159z M28.265,41.358l-3.93,6.293
	c-0.117,0.184-0.304,0.316-0.523,0.359c-0.051,0.012-0.102,0.016-0.156,0.016c-0.164,0-0.325-0.051-0.461-0.149l-3.262-2.312
	c-0.363-0.254-0.445-0.754-0.191-1.113c0.253-0.364,0.753-0.446,1.117-0.192l2.57,1.825l3.484-5.575
	c0.231-0.375,0.723-0.488,1.102-0.254C28.386,40.491,28.499,40.983,28.265,41.358L28.265,41.358z M28.265,41.358"/>
</svg>
